…
The code does the following:
* Graph $z = f(x,y)$ in `persp3d` from the package `rgl`.
* Uses Nelder-Mead numerical optimizer to find and mark all local maxima's with a red-dot. `points3d` was used to do this.
* Finds the global maxima in the interval and marks it with a green-dot.

<img src="https://github.com/Stochastic1017/Multivariate-optimization-in-R/blob/main/Images/Function_image.png" width="500" height="500">

# 4. Tukey's robust regression:

## Head of Dataset

Consider the dataset that has the land and farm area in square miles for
all U.S. states:

    ## # A tibble: 50 × 3
    ##    state         land  farm
    ##    <chr>        <dbl> <dbl>
    ##  1 Alabama      50744 14062
    ##  2 Alaska      567400  1375
    ##  3 Arizona     113635 40781
    ##  4 Arkansas     52068 21406
    ##  5 California  155959 39688
    ##  6 Colorado    103718 48750
    ##  7 Connecticut   4845   625
    ##  8 Delaware      1954   766
    ##  9 Florida      53927 14453
    ## 10 Georgia      57906 16094
    ## # ℹ 40 more rows
…
``` r
success.indices = rep(x=seq_len(nrow(menarche)), times=menarche$Menarche)
success.ages = menarche$Age[success.indices]
success = data.frame(age=success.ages, reached.menarche=1)
failure.indices = rep(x=seq_len(nrow(menarche)), times=menarche$Total - menarche$Menarche)
failure.ages = menarche$Age[failure.indices]
failure = data.frame(age=failure.ages, reached.menarche=0)
menarche.cases = rbind(success, failure)
menarche.cases = menarche.cases[order(menarche.cases$age), ]
rownames(menarche.cases) = NULL # Remove incorrectly ordered rownames; they get restored correctly.
```
       ## # A tibble: 25 × 3
    ##      Age Total Menarche
    ##    <dbl> <dbl>    <dbl>
    ##  1  9.21   376        0
    ##  2 10.2    200        0
    ##  3 10.6     93        0
    ##  4 10.8    120        2
    ##  5 11.1     90        2
    ##  6 11.3     88        5
    ##  7 11.6    105       10
    ##  8 11.8    111       17
    ##  9 12.1    100       16
    ## 10 12.3     93       29
    ## # ℹ 15 more rows
…
