Tukey Robust Regression
================
S. Sudhir
2023-08-16

# Head of Dataset

Consider the dataset that has the land and farm area in square miles for
all U.S. states:

    ## # A tibble: 50 × 3
    ##    state         land  farm
    ##    <chr>        <dbl> <dbl>
    ##  1 Alabama      50744 14062
    ##  2 Alaska      567400  1375
    ##  3 Arizona     113635 40781
    ##  4 Arkansas     52068 21406
    ##  5 California  155959 39688
    ##  6 Colorado    103718 48750
    ##  7 Connecticut   4845   625
    ##  8 Delaware      1954   766
    ##  9 Florida      53927 14453
    ## 10 Georgia      57906 16094
    ## # ℹ 40 more rows
…
